{
  "policies": {

    "DisableDeveloperTools": true,
    "DisableFirefoxScreenshots": true,
    "DisableFirefoxStudies": true,
    "DisableTelemetry": true,
    "NewTabPage": false,
    "NoDefaultBookmarks": true,
    "OverrideFirstRunPage": "",
    "OverridePostUpdatePage": "",

    "Homepage": {
      "URL": "file:///usr/share/postmarketos-config-firefox/home.html",
      "Locked": false,
      "StartPage": "homepage"
    },

    "SearchEngines": {
      "Default": "DuckDuckGo"
    },

    "UserMessaging": {
      "WhatsNew": false,
      "ExtensionRecommendations": false,
      "FeatureRecommendations": false,
      "UrlbarInterventions": false
    }
  }
}
